<svg width="24" height="21" viewBox="0 0 24 21" fill="none" xmlns="http://www.w3.org/2000/svg">
<path fill-rule="evenodd" clip-rule="evenodd" d="M11.9996 18.0226C7.35982 15.3882 4.76416 12.7626 3.50744 10.4739C2.22425 8.13698 2.3302 6.15452 3.05171 4.73901C4.52988 1.83903 8.73571 0.911189 11.2936 4.14628L11.9995 5.03912L12.7055 4.14632C15.2638 0.911117 19.4699 1.83909 20.948 4.73901C21.6695 6.1545 21.7754 8.13695 20.4921 10.4738C19.2353 12.7626 16.6395 15.3882 11.9996 18.0226ZM11.9996 2.24511C8.5199 -1.14383 3.33722 0.215237 1.44802 3.92158C0.419533 5.93934 0.400427 8.55527 1.92965 11.3402C3.44655 14.1028 6.47805 17.0306 11.5642 19.8418L11.9996 20.0825L12.4349 19.8419C17.5213 17.0307 20.5529 14.1028 22.0699 11.3403C23.5992 8.55529 23.5802 5.93935 22.5517 3.92158C20.6625 0.215172 15.4796 -1.14379 11.9996 2.24511Z" fill="#3c454c"/>
</svg>
